MutualRawMax,,,,,,,,,,,,,,,,,,,,,,,,,,,,,,,,,
1036,1115,1126,1113,1093,1086,1091,1079,1077,1079,1078,1071,1076,1079,1077,1079,1080,1083,1086,1084,1086,1085,1086,1092,1088,1091,1100,1100,1109,1111,1117,1127,1140,1201
1052,1064,1059,1062,1057,1060,1064,1062,1064,1078,1060,1063,1063,1067,1067,1070,1074,1075,1080,1080,1084,1084,1088,1095,1093,1098,1105,1106,1118,1120,1126,1133,1142,1163
1056,1063,1058,1063,1056,1059,1082,1062,1064,1059,1060,1063,1063,1067,1067,1070,1073,1075,1080,1080,1083,1084,1087,1095,1093,1096,1104,1105,1116,1117,1123,1128,1136,1162
1054,1062,1057,1060,1056,1058,1062,1061,1063,1058,1078,1062,1063,1066,1066,1070,1073,1074,1079,1079,1083,1082,1086,1094,1092,1095,1102,1103,1114,1115,1120,1125,1131,1140
1106,1067,1061,1064,1060,1061,1065,1057,1082,1062,1063,1062,1062,1070,1070,1073,1077,1079,1084,1083,1087,1087,1090,1097,1090,1098,1106,1106,1116,1116,1121,1127,1133,1137
1072,1072,1065,1068,1063,1064,1069,1069,1066,1066,1067,1066,1093,1074,1073,1077,1080,1083,1088,1087,1132,1090,1093,1100,1102,1101,1108,1109,1118,1119,1123,1129,1134,1135
996,1075,1069,1071,1067,1067,1072,1072,1069,1068,1070,1069,1077,1077,1076,1079,1083,1086,1090,1089,1094,1092,1095,1102,1123,1103,1110,1111,1119,1119,1124,1129,1134,1132
324,977,1075,1080,1075,1075,1080,1099,1077,1076,1078,1077,1084,1084,1082,1086,1088,1091,1095,1094,1097,1097,1099,1106,1108,1106,1113,1113,1121,1121,1125,1130,1133,1128
267,919,1081,1088,1101,1083,1087,1083,1085,1084,1085,1080,1087,1091,1089,1094,1095,1098,1102,1101,1104,1103,1105,1113,1109,1112,1119,1119,1126,1122,1126,1134,1138,1130
266,924,1087,1093,1088,1088,1092,1089,1090,1088,1090,1112,1093,1095,1094,1098,1100,1103,1106,1105,1108,1107,1110,1116,1113,1116,1123,1122,1130,1134,1137,1137,1140,1131
323,1000,1093,1097,1091,1092,1095,1092,1094,1091,1094,1096,1097,1099,1097,1101,1103,1106,1109,1108,1110,1109,1112,1119,1116,1118,1125,1124,1132,1155,1139,1138,1141,1129
1011,1102,1094,1096,1090,1091,1094,1091,1093,1091,1092,1095,1095,1098,1097,1100,1102,1105,1109,1108,1110,1109,1113,1119,1116,1119,1125,1124,1132,1136,1158,1138,1141,1127
1100,1108,1101,1104,1098,1099,1103,1099,1101,1098,1100,1099,1103,1105,1104,1103,1129,1112,1115,1114,1116,1115,1118,1125,1121,1119,1130,1129,1132,1135,1138,1142,1144,1130
1102,1109,1104,1106,1100,1101,1105,1101,1104,1101,1103,1102,1107,1109,1108,1116,1115,1117,1120,1119,1122,1121,1124,1130,1127,1152,1135,1134,1145,1140,1142,1145,1146,1126
1102,1108,1103,1105,1100,1100,1105,1102,1104,1100,1102,1102,1106,1108,1106,1114,1112,1115,1118,1117,1119,1118,1121,1127,1124,1130,1132,1131,1162,1138,1140,1144,1146,1134
1102,1109,1104,1106,1100,1101,1105,1102,1104,1101,1104,1103,1107,1109,1108,1134,1114,1116,1120,1119,1121,1121,1124,1131,1128,1135,1138,1137,1149,1144,1147,1152,1155,1146
1101,1114,1109,1112,1106,1107,1111,1108,1111,1107,1110,1109,1114,1139,1118,1118,1120,1123,1125,1124,1126,1125,1127,1134,1131,1133,1139,1138,1145,1145,1148,1152,1156,1147
1089,1169,1164,1159,1146,1142,1142,1135,1134,1127,1128,1125,1127,1132,1147,1126,1128,1128,1129,1126,1126,1123,1124,1129,1126,1127,1131,1129,1135,1133,1135,1138,1143,1167
MutualRawMin,,,,,,,,,,,,,,,,,,,,,,,,,,,,,,,,,
514,609,639,626,609,605,617,605,603,613,614,610,612,623,627,628,633,640,643,646,651,656,662,666,665,671,679,686,691,696,704,715,726,771
523,578,591,590,587,588,600,597,598,617,603,608,605,616,621,624,629,635,640,644,651,656,666,670,671,678,684,691,699,705,713,720,728,742
530,579,592,593,588,590,617,599,600,604,605,609,607,618,622,625,631,636,640,645,651,656,666,670,671,678,684,690,698,703,711,717,724,743
536,584,596,596,593,594,607,603,604,608,624,613,610,621,626,628,634,639,644,648,654,660,669,673,674,680,686,692,699,704,712,717,723,729
577,585,597,597,593,595,606,598,615,609,610,610,607,621,627,629,634,641,645,649,655,660,669,672,670,679,686,692,698,703,710,717,723,724
539,587,600,599,596,596,611,607,607,612,612,614,631,625,629,631,636,642,647,651,696,662,670,675,678,681,687,693,698,703,710,716,722,720
489,592,608,608,605,605,619,614,615,620,620,622,623,632,636,639,643,649,653,657,664,668,675,680,698,686,692,697,703,707,713,720,725,722
19,518,625,631,629,630,643,653,639,642,643,644,645,653,657,658,663,668,672,674,680,684,692,695,698,700,705,710,715,719,725,730,735,730
-45,477,629,639,652,638,650,643,643,650,649,646,649,659,663,664,669,673,677,679,684,689,696,698,698,703,708,713,717,716,722,732,736,728
-45,486,639,648,647,647,659,652,653,659,659,678,658,668,672,672,676,681,683,686,691,696,701,704,704,708,713,718,722,730,735,735,739,730
8,548,653,657,656,656,668,661,662,668,667,671,666,676,680,681,684,688,691,693,698,702,708,710,710,714,718,723,727,750,740,740,743,733
537,646,661,659,658,658,669,663,664,670,669,674,669,678,682,683,687,690,693,695,700,705,710,712,712,716,721,726,729,737,757,742,746,734
610,661,672,670,669,669,680,674,675,681,679,680,678,687,691,687,709,699,701,703,708,712,717,718,718,717,725,730,728,737,741,745,749,737
616,667,677,676,675,675,686,680,681,687,685,686,684,693,697,702,702,705,708,709,715,718,723,725,725,748,731,736,744,742,746,749,753,735
616,668,678,677,676,676,686,679,681,687,685,685,684,692,696,701,701,703,706,707,712,716,721,722,722,731,729,734,757,741,745,748,753,742
619,670,681,679,678,678,688,682,683,689,687,688,686,695,699,719,703,707,709,710,716,719,725,727,727,736,734,739,748,747,752,757,762,753
615,673,684,682,681,682,691,685,686,692,690,691,689,717,707,702,705,708,710,712,716,719,724,726,725,729,733,738,741,744,749,754,760,751
606,719,729,721,715,710,716,707,705,708,704,704,700,711,729,708,709,711,712,712,714,716,720,720,718,721,724,727,729,732,736,741,747,766
Rx_delta_abslimit,,,,,,,,,,,,,,,,,,,,,,,,,,,,,,,,,
300,225,215,226,209,212,218,210,212,205,211,212,216,207,207,208,209,207,205,208,204,208,209,210,210,217,208,213,216,213,215,220,263,
246,209,203,212,206,212,208,209,223,221,209,209,216,208,208,210,208,208,207,209,206,212,210,207,210,215,209,216,217,213,212,217,228,
241,209,206,214,206,229,226,210,207,206,209,209,217,208,208,209,207,208,207,209,206,212,209,208,210,214,208,216,216,212,210,215,233,
240,209,203,212,206,213,209,210,207,224,219,210,216,208,208,210,208,208,207,209,206,211,210,208,210,214,208,215,216,212,210,214,218,
230,208,204,212,205,212,215,230,219,206,206,210,220,209,208,209,209,208,207,209,205,210,209,212,213,215,208,213,215,211,210,214,213,
239,209,203,213,204,214,208,209,208,206,205,230,221,208,208,209,209,208,207,250,240,210,210,210,206,215,208,213,215,211,210,213,211,
307,212,203,212,204,214,208,209,208,206,205,214,214,208,208,209,208,207,207,210,204,210,209,227,222,215,207,213,215,210,210,214,212,
873,310,208,212,204,213,221,226,207,206,205,213,213,207,207,208,208,207,206,208,205,209,209,209,205,213,207,213,215,210,210,213,215,
878,364,211,221,220,212,211,210,208,205,210,214,216,207,207,208,207,207,206,208,204,209,208,209,208,214,207,212,215,210,214,212,217,
882,365,210,211,205,211,211,210,208,205,226,228,215,207,207,208,207,207,206,208,205,209,208,209,209,214,207,212,219,210,204,212,219,
896,307,206,211,204,211,211,210,208,206,209,211,215,207,207,208,207,206,205,208,204,209,208,209,208,214,207,212,236,219,205,212,220,
314,210,202,212,204,211,211,210,208,206,208,210,215,207,207,208,207,207,205,208,205,209,208,209,208,213,207,212,219,226,222,211,221,
241,208,202,212,204,211,211,210,207,205,205,209,215,207,207,229,218,206,205,208,204,208,208,209,207,217,207,207,219,209,209,211,222,
240,208,202,212,204,211,211,210,207,205,205,210,215,208,211,206,207,206,205,208,204,208,209,209,230,225,206,215,216,208,207,211,227,
240,208,202,211,204,211,210,210,207,205,205,209,214,208,211,206,207,206,206,208,204,209,208,210,213,208,206,233,233,209,208,212,220,
239,207,202,211,204,211,211,210,207,205,205,210,215,208,228,223,206,206,205,208,204,209,208,208,213,208,206,216,215,210,209,213,217,
246,208,202,211,204,211,210,210,207,206,205,210,236,222,207,207,207,205,205,207,204,208,208,209,208,213,206,211,215,209,209,213,217,
307,208,208,218,208,207,214,210,208,207,207,209,217,223,226,206,205,204,207,205,203,207,207,210,207,212,205,210,213,208,208,214,228,
Tx_delta_abslimit,,,,,,,,,,,,,,,,,,,,,,,,,,,,,,,,,
132,161,177,162,146,138,139,128,125,118,130,121,125,125,124,122,121,122,121,119,117,116,120,120,123,124,122,122,125,126,126,123,119,150
117,111,111,114,111,112,129,112,112,128,111,111,112,112,112,112,112,111,111,111,111,111,111,112,112,111,112,113,113,113,114,115,118,112
116,113,113,112,113,113,127,113,113,112,129,112,113,112,112,112,112,112,112,112,112,112,111,111,111,111,111,110,111,111,112,112,114,130
163,115,113,113,113,114,113,116,128,113,125,112,112,112,112,112,112,114,114,114,115,113,112,111,113,110,113,112,110,110,110,111,112,116
151,116,115,114,114,114,114,122,123,113,113,114,139,114,113,113,113,113,112,112,156,112,113,112,120,112,111,111,111,110,110,110,111,114
186,115,117,117,117,118,117,116,116,116,116,116,123,115,115,115,115,115,115,114,148,114,114,114,131,113,113,113,113,112,112,112,111,112
813,207,126,131,132,132,131,147,131,130,130,130,129,128,128,127,127,126,126,125,124,124,123,123,122,122,120,120,119,119,118,117,117,114
176,169,117,120,138,120,120,125,120,120,119,115,115,119,119,118,118,118,118,117,117,117,116,116,112,116,115,115,114,112,112,113,113,111
109,120,120,119,121,119,118,118,119,118,119,144,118,118,117,117,117,117,117,116,116,116,115,115,115,115,114,114,114,123,123,113,112,110
168,183,123,119,118,118,117,118,117,117,117,123,116,116,117,116,116,116,116,115,115,115,115,115,114,114,114,114,113,130,113,112,112,112
827,221,117,111,111,110,111,110,111,111,110,111,110,110,111,111,111,111,111,111,111,111,111,111,111,111,111,111,111,126,128,110,110,110
200,126,122,122,122,122,122,122,122,122,121,117,120,120,120,116,137,119,118,118,118,117,118,117,117,112,115,115,111,111,128,113,113,113
118,115,119,116,115,115,115,116,115,115,115,116,115,115,116,124,122,116,116,116,116,118,120,117,118,143,116,115,124,114,113,113,114,114
117,114,115,113,113,114,114,113,113,114,114,114,114,115,115,116,116,116,116,117,117,117,117,118,117,135,117,117,130,116,116,114,115,123
116,114,115,114,113,114,114,114,114,114,114,114,114,115,115,133,115,115,115,116,116,116,117,117,117,118,118,119,125,120,120,121,122,126
115,117,116,116,116,116,116,116,117,117,117,117,117,138,121,129,116,116,115,114,114,113,113,113,113,116,111,112,117,113,113,112,112,113
130,165,167,159,152,147,142,139,135,133,131,129,127,121,141,122,120,119,117,116,116,117,119,120,122,122,124,125,126,128,128,129,128,132
noise_data_limit,,,,,,,,,,,,,,,,,,,,,,,,,,,,,,,,,
-25,25,,,,,,,,,,,,,,,,,,,,,,,,,,,,,,,,
trex_shorts,,,,,,,,,,,,,,,,,,,,,,,,,,,,,,,,,
3,0,0,0,,,,,,,,,,,,,,,,,,,,,,,,,,,,,,
